lab4/trace.vcd
$version Generated by VerilatedVcd $end
$timescale 1ps $end

 $scope module TOP $end
  $var wire  1 p clk $end
  $var wire  1 q reset $end
  $scope module tb_axis_fifo $end
   $var wire 32 z ADDR_WIDTH [31:0] $end
   $var wire 32 y AXIS_DATA_WIDTH [31:0] $end
   $var wire 32 { DATA_NUM [31:0] $end
   $var wire  1 p clk $end
   $var wire 129 / cycle_count_reg [128:0] $end
   $var wire 32 r din_0_rsc_dat [31:0] $end
   $var wire 32 , din_0_rsc_dat_reg [31:0] $end
   $var wire  1 s din_0_rsc_rdy $end
   $var wire  1 t din_0_rsc_vld $end
   $var wire  1 - din_0_rsc_vld_reg $end
   $var wire 32 u dout_0_rsc_dat [31:0] $end
   $var wire  1 v dout_0_rsc_rdy $end
   $var wire  1 . dout_0_rsc_rdy_reg $end
   $var wire  1 w dout_0_rsc_vld $end
   $var wire 32 } f_in_0 [31:0] $end
   $var wire 32 ~ f_out_0 [31:0] $end
   $var wire 32 4 in_0_ptr [31:0] $end
   $var wire 32 5 out_0_ptr [31:0] $end
   $var wire  1 q reset $end
   $var wire 32 | write_start [31:0] $end
   $scope module axis_fifo_inst $end
    $var wire 32 z ADDR_WIDTH [31:0] $end
    $var wire 32 y AXIS_DATA_WIDTH [31:0] $end
    $var wire  1 o empty $end
    $var wire  1 n full $end
    $var wire 33 F mem[0] [32:0] $end
    $var wire 33 Z mem[10] [32:0] $end
    $var wire 33 \ mem[11] [32:0] $end
    $var wire 33 ^ mem[12] [32:0] $end
    $var wire 33 ` mem[13] [32:0] $end
    $var wire 33 b mem[14] [32:0] $end
    $var wire 33 d mem[15] [32:0] $end
    $var wire 33 H mem[1] [32:0] $end
    $var wire 33 J mem[2] [32:0] $end
    $var wire 33 L mem[3] [32:0] $end
    $var wire 33 N mem[4] [32:0] $end
    $var wire 33 P mem[5] [32:0] $end
    $var wire 33 R mem[6] [32:0] $end
    $var wire 33 T mem[7] [32:0] $end
    $var wire 33 V mem[8] [32:0] $end
    $var wire 33 X mem[9] [32:0] $end
    $var wire 33 f mem_read_data_reg [32:0] $end
    $var wire  1 ' mem_read_data_valid_next $end
    $var wire  1 h mem_read_data_valid_reg $end
    $var wire 33 i mem_write_data [32:0] $end
    $var wire  1 p rd_aclk $end
    $var wire  5 ; rd_addr_reg [4:0] $end
    $var wire 32 u rd_axis_data [31:0] $end
    $var wire  1 v rd_axis_rdy $end
    $var wire  1 w rd_axis_vld $end
    $var wire  1 ( rd_axis_vld_next $end
    $var wire  1 m rd_axis_vld_reg $end
    $var wire 33 k rd_data_reg [32:0] $end
    $var wire  5 & rd_ptr_gray_next [4:0] $end
    $var wire  5 : rd_ptr_gray_reg [4:0] $end
    $var wire  5 > rd_ptr_gray_sync1_reg [4:0] $end
    $var wire  5 ? rd_ptr_gray_sync2_reg [4:0] $end
    $var wire  5 % rd_ptr_next [4:0] $end
    $var wire  5 9 rd_ptr_reg [4:0] $end
    $var wire  1 C rd_rst_sync1_reg $end
    $var wire  1 D rd_rst_sync2_reg $end
    $var wire  1 E rd_rst_sync3_reg $end
    $var wire  1 x rd_rstn $end
    $var wire  1 * read $end
    $var wire  1 + store_output $end
    $var wire  1 p wr_aclk $end
    $var wire  5 8 wr_addr_reg [4:0] $end
    $var wire 32 r wr_axis_data [31:0] $end
    $var wire  1 s wr_axis_rdy $end
    $var wire  1 t wr_axis_vld $end
    $var wire  5 $ wr_ptr_gray_next [4:0] $end
    $var wire  5 7 wr_ptr_gray_reg [4:0] $end
    $var wire  5 < wr_ptr_gray_sync1_reg [4:0] $end
    $var wire  5 = wr_ptr_gray_sync2_reg [4:0] $end
    $var wire  5 # wr_ptr_next [4:0] $end
    $var wire  5 6 wr_ptr_reg [4:0] $end
    $var wire  1 @ wr_rst_sync1_reg $end
    $var wire  1 A wr_rst_sync2_reg $end
    $var wire  1 B wr_rst_sync3_reg $end
    $var wire  1 x wr_rstn $end
    $var wire  1 ) write $end
   $upscope $end
  $upscope $end
 $upscope $end
$enddefinitions $end


#0
b00000 #
b00000 $
b00000 %
b00000 &
0'
0(
0)
0*
0+
b00000000000000000000000000000000 ,
0-
0.
b000000000000000000000000000000000000000000000000000000000000000000000000000000000000000000000000000000000000000000000000000000000 /
b00000000000000000000000000000000 4
b00000000000000000000000000000000 5
b00000 6
b00000 7
b00000 8
b00000 9
b00000 :
b00000 ;
b00000 <
b00000 =
b00000 >
b00000 ?
1@
1A
1B
1C
1D
1E
b000000000000000000000000000000000 F
b000000000000000000000000000000000 H
b000000000000000000000000000000000 J
b000000000000000000000000000000000 L
b000000000000000000000000000000000 N
b000000000000000000000000000000000 P
b000000000000000000000000000000000 R
b000000000000000000000000000000000 T
b000000000000000000000000000000000 V
b000000000000000000000000000000000 X
b000000000000000000000000000000000 Z
b000000000000000000000000000000000 \
b000000000000000000000000000000000 ^
b000000000000000000000000000000000 `
b000000000000000000000000000000000 b
b000000000000000000000000000000000 d
b000000000000000000000000000000000 f
0h
b000000000000000000000000000000000 i
b000000000000000000000000000000000 k
0m
0n
1o
1p
0q
b00000000000000000000000000000000 r
1s
0t
b00000000000000000000000000000000 u
0v
0w
1x
b00000000000000000000000000100000 y
b00000000000000000000000000000100 z
b00000000000000000000010000000000 {
b00000000000000000000001000000000 |
b00000000000000000000000000000000 }
b00000000000000000000000000000000 ~
#1
#2
0p
1q
0x
#3
#4
b000000000000000000000000000000000000000000000000000000000000000000000000000000000000000000000000000000000000000000000000000000001 /
1p
#5
#6
0p
#7
#8
b000000000000000000000000000000000000000000000000000000000000000000000000000000000000000000000000000000000000000000000000000000010 /
1p
#9
#10
0p
0q
1x
#11
#12
b00001 #
b00001 $
1)
b11001011110100100111000111110111 ,
1-
b000000000000000000000000000000000000000000000000000000000000000000000000000000000000000000000000000000000000000000000000000000011 /
0@
0C
b011001011110100100111000111110111 i
1p
b11001011110100100111000111110111 r
1t
#13
#14
0p
#15
#16
b00100011101111011100101100110011 ,
b000000000000000000000000000000000000000000000000000000000000000000000000000000000000000000000000000000000000000000000000000000100 /
b00000000000000000000000000000001 4
b00001 8
0A
0D
b011001011110100100111000111110111 F
b000100011101111011100101100110011 i
1p
b00100011101111011100101100110011 r
#17
#18
0p
#19
#20
b01010010011111111010101100011000 ,
b000000000000000000000000000000000000000000000000000000000000000000000000000000000000000000000000000000000000000000000000000000101 /
b00000000000000000000000000000010 4
0B
0E
b000100011101111011100101100110011 H
b001010010011111111010101100011000 i
1p
b01010010011111111010101100011000 r
#21
#22
0p
#23
#24
b00010 #
b00011 $
b00101101110001110101111110111001 ,
b000000000000000000000000000000000000000000000000000000000000000000000000000000000000000000000000000000000000000000000000000000110 /
b00000000000000000000000000000011 4
b00001 6
b00001 7
b001010010011111111010101100011000 H
b000101101110001110101111110111001 i
1p
b00101101110001110101111110111001 r
#25
#26
0p
#27
#28
b00011 #
b00010 $
b01111001111111111100000101000100 ,
b000000000000000000000000000000000000000000000000000000000000000000000000000000000000000000000000000000000000000000000000000000111 /
b00000000000000000000000000000100 4
b00010 6
b00011 7
b00010 8
b00001 <
b000101101110001110101111110111001 H
b001111001111111111100000101000100 i
1p
b01111001111111111100000101000100 r
#29
#30
0p
#31
#32
b00100 #
b00110 $
b11111001100100011100100101101001 ,
b000000000000000000000000000000000000000000000000000000000000000000000000000000000000000000000000000000000000000000000000000001000 /
b00000000000000000000000000000101 4
b00011 6
b00010 7
b00011 8
b00011 <
b00001 =
b001111001111111111100000101000100 J
b011111001100100011100100101101001 i
0o
1p
b11111001100100011100100101101001 r
#33
#34
0p
#35
#36
b00101 #
b00111 $
b01001110001010000010111100100011 ,
b000000000000000000000000000000000000000000000000000000000000000000000000000000000000000000000000000000000000000000000000000001001 /
b00000000000000000000000000000110 4
b00100 6
b00110 7
b00100 8
b00010 <
b00011 =
b011111001100100011100100101101001 L
b001001110001010000010111100100011 i
1p
b01001110001010000010111100100011 r
#37
#38
0p
#39
#40
b00110 #
b00101 $
b01010000101100110110111111011011 ,
b000000000000000000000000000000000000000000000000000000000000000000000000000000000000000000000000000000000000000000000000000001010 /
b00000000000000000000000000000111 4
b00101 6
b00111 7
b00101 8
b00110 <
b00010 =
b001001110001010000010111100100011 N
b001010000101100110110111111011011 i
1p
b01010000101100110110111111011011 r
#41
#42
0p
#43
#44
b00111 #
b00100 $
b11001111110111010011000110101100 ,
b000000000000000000000000000000000000000000000000000000000000000000000000000000000000000000000000000000000000000000000000000001011 /
b00000000000000000000000000001000 4
b00110 6
b00101 7
b00110 8
b00111 <
b00110 =
b001010000101100110110111111011011 P
b011001111110111010011000110101100 i
1p
b11001111110111010011000110101100 r
#45
#46
0p
#47
#48
b01000 #
b01100 $
b00100000100000000110000010101110 ,
b000000000000000000000000000000000000000000000000000000000000000000000000000000000000000000000000000000000000000000000000000001100 /
b00000000000000000000000000001001 4
b00111 6
b00100 7
b00111 8
b00101 <
b00111 =
b011001111110111010011000110101100 R
b000100000100000000110000010101110 i
1p
b00100000100000000110000010101110 r
#49
#50
0p
#51
#52
b01001 #
b01101 $
b01000101011101100010011100010110 ,
b000000000000000000000000000000000000000000000000000000000000000000000000000000000000000000000000000000000000000000000000000001101 /
b00000000000000000000000000001010 4
b01000 6
b01100 7
b01000 8
b00100 <
b00101 =
b000100000100000000110000010101110 T
b001000101011101100010011100010110 i
1p
b01000101011101100010011100010110 r
#53
#54
0p
#55
#56
b01010 #
b01111 $
b00011010010110110010011100101010 ,
b000000000000000000000000000000000000000000000000000000000000000000000000000000000000000000000000000000000000000000000000000001110 /
b00000000000000000000000000001011 4
b01001 6
b01101 7
b01001 8
b01100 <
b00100 =
b001000101011101100010011100010110 V
b000011010010110110010011100101010 i
1p
b00011010010110110010011100101010 r
#57
#58
0p
#59
#60
b01011 #
b01110 $
b00100101101110001110011101110010 ,
b000000000000000000000000000000000000000000000000000000000000000000000000000000000000000000000000000000000000000000000000000001111 /
b00000000000000000000000000001100 4
b01010 6
b01111 7
b01010 8
b01101 <
b01100 =
b000011010010110110010011100101010 X
b000100101101110001110011101110010 i
1p
b00100101101110001110011101110010 r
#61
#62
0p
#63
#64
b01100 #
b01010 $
b00111010100011011101101111101000 ,
b000000000000000000000000000000000000000000000000000000000000000000000000000000000000000000000000000000000000000000000000000010000 /
b00000000000000000000000000001101 4
b01011 6
b01110 7
b01011 8
b01111 <
b01101 =
b000100101101110001110011101110010 Z
b000111010100011011101101111101000 i
1p
b00111010100011011101101111101000 r
#65
#66
0p
#67
#68
b01101 #
b01011 $
b01001001100101110111001100110010 ,
b000000000000000000000000000000000000000000000000000000000000000000000000000000000000000000000000000000000000000000000000000010001 /
b00000000000000000000000000001110 4
b01100 6
b01010 7
b01100 8
b01110 <
b01111 =
b000111010100011011101101111101000 \
b001001001100101110111001100110010 i
1p
b01001001100101110111001100110010 r
#69
#70
0p
#71
#72
b01110 #
b01001 $
b00111101000110111001010000010111 ,
b000000000000000000000000000000000000000000000000000000000000000000000000000000000000000000000000000000000000000000000000000010010 /
b00000000000000000000000000001111 4
b01101 6
b01011 7
b01101 8
b01010 <
b01110 =
b001001001100101110111001100110010 ^
b000111101000110111001010000010111 i
1p
b00111101000110111001010000010111 r
#73
#74
0p
#75
#76
b01111 #
b01000 $
b00100100001001100011100011100011 ,
b000000000000000000000000000000000000000000000000000000000000000000000000000000000000000000000000000000000000000000000000000010011 /
b00000000000000000000000000010000 4
b01110 6
b01001 7
b01110 8
b01011 <
b01010 =
b000111101000110111001010000010111 `
b000100100001001100011100011100011 i
1p
b00100100001001100011100011100011 r
#77
#78
0p
#79
#80
b10000 #
b11000 $
b11000100110111000100000000110110 ,
b000000000000000000000000000000000000000000000000000000000000000000000000000000000000000000000000000000000000000000000000000010100 /
b00000000000000000000000000010001 4
b01111 6
b01000 7
b01111 8
b01001 <
b01011 =
b000100100001001100011100011100011 b
b011000100110111000100000000110110 i
1p
b11000100110111000100000000110110 r
#81
#82
0p
#83
#84
0)
b00111001010101000010100011111110 ,
b000000000000000000000000000000000000000000000000000000000000000000000000000000000000000000000000000000000000000000000000000010101 /
b00000000000000000000000000010010 4
b10000 6
b11000 7
b10000 8
b01000 <
b01001 =
b011000100110111000100000000110110 d
b000111001010101000010100011111110 i
1n
1p
b00111001010101000010100011111110 r
0s
#85
#86
0p
#87
#88
b000000000000000000000000000000000000000000000000000000000000000000000000000000000000000000000000000000000000000000000000000010110 /
b11000 <
b01000 =
1p
#89
#90
0p
#91
#92
b000000000000000000000000000000000000000000000000000000000000000000000000000000000000000000000000000000000000000000000000000010111 /
b11000 =
1p
#93
#94
0p
#95
#96
b000000000000000000000000000000000000000000000000000000000000000000000000000000000000000000000000000000000000000000000000000011000 /
1p
#97
#98
0p
#99
#100
b000000000000000000000000000000000000000000000000000000000000000000000000000000000000000000000000000000000000000000000000000011001 /
1p
#101
#102
0p
#103
#104
b000000000000000000000000000000000000000000000000000000000000000000000000000000000000000000000000000000000000000000000000000011010 /
1p
#105
#106
0p
#107
#108
b000000000000000000000000000000000000000000000000000000000000000000000000000000000000000000000000000000000000000000000000000011011 /
1p
#109
#110
0p
#111
#112
b000000000000000000000000000000000000000000000000000000000000000000000000000000000000000000000000000000000000000000000000000011100 /
1p
#113
#114
0p
#115
#116
b000000000000000000000000000000000000000000000000000000000000000000000000000000000000000000000000000000000000000000000000000011101 /
1p
#117
#118
0p
#119
#120
b000000000000000000000000000000000000000000000000000000000000000000000000000000000000000000000000000000000000000000000000000011110 /
1p
#121
#122
0p
#123
#124
b000000000000000000000000000000000000000000000000000000000000000000000000000000000000000000000000000000000000000000000000000011111 /
1p
#125
#126
0p
#127
#128
b000000000000000000000000000000000000000000000000000000000000000000000000000000000000000000000000000000000000000000000000000100000 /
1p
#129
#130
0p
#131
#132
b000000000000000000000000000000000000000000000000000000000000000000000000000000000000000000000000000000000000000000000000000100001 /
1p
#133
#134
0p
#135
#136
b000000000000000000000000000000000000000000000000000000000000000000000000000000000000000000000000000000000000000000000000000100010 /
1p
#137
#138
0p
#139
#140
b000000000000000000000000000000000000000000000000000000000000000000000000000000000000000000000000000000000000000000000000000100011 /
1p
#141
#142
0p
#143
#144
b000000000000000000000000000000000000000000000000000000000000000000000000000000000000000000000000000000000000000000000000000100100 /
1p
#145
#146
0p
#147
#148
b000000000000000000000000000000000000000000000000000000000000000000000000000000000000000000000000000000000000000000000000000100101 /
1p
#149
#150
0p
#151
#152
b000000000000000000000000000000000000000000000000000000000000000000000000000000000000000000000000000000000000000000000000000100110 /
1p
#153
#154
0p
#155
#156
b000000000000000000000000000000000000000000000000000000000000000000000000000000000000000000000000000000000000000000000000000100111 /
1p
#157
#158
0p
#159
#160
b000000000000000000000000000000000000000000000000000000000000000000000000000000000000000000000000000000000000000000000000000101000 /
1p
#161
#162
0p
#163
#164
b000000000000000000000000000000000000000000000000000000000000000000000000000000000000000000000000000000000000000000000000000101001 /
1p
#165
#166
0p
#167
#168
b000000000000000000000000000000000000000000000000000000000000000000000000000000000000000000000000000000000000000000000000000101010 /
1p
#169
#170
0p
#171
#172
b000000000000000000000000000000000000000000000000000000000000000000000000000000000000000000000000000000000000000000000000000101011 /
1p
#173
#174
0p
#175
#176
b000000000000000000000000000000000000000000000000000000000000000000000000000000000000000000000000000000000000000000000000000101100 /
1p
#177
#178
0p
#179
#180
b000000000000000000000000000000000000000000000000000000000000000000000000000000000000000000000000000000000000000000000000000101101 /
1p
#181
#182
0p
#183
#184
b000000000000000000000000000000000000000000000000000000000000000000000000000000000000000000000000000000000000000000000000000101110 /
1p
#185
#186
0p
#187
#188
b000000000000000000000000000000000000000000000000000000000000000000000000000000000000000000000000000000000000000000000000000101111 /
1p
#189
#190
0p
#191
#192
b000000000000000000000000000000000000000000000000000000000000000000000000000000000000000000000000000000000000000000000000000110000 /
1p
#193
#194
0p
#195
#196
b000000000000000000000000000000000000000000000000000000000000000000000000000000000000000000000000000000000000000000000000000110001 /
1p
#197
#198
0p
#199
#200
b000000000000000000000000000000000000000000000000000000000000000000000000000000000000000000000000000000000000000000000000000110010 /
1p
#201
#202
0p
#203
#204
b000000000000000000000000000000000000000000000000000000000000000000000000000000000000000000000000000000000000000000000000000110011 /
1p
#205
#206
0p
#207
#208
b000000000000000000000000000000000000000000000000000000000000000000000000000000000000000000000000000000000000000000000000000110100 /
1p
#209
#210
0p
#211
#212
b000000000000000000000000000000000000000000000000000000000000000000000000000000000000000000000000000000000000000000000000000110101 /
1p
#213
#214
0p
#215
#216
b000000000000000000000000000000000000000000000000000000000000000000000000000000000000000000000000000000000000000000000000000110110 /
1p
#217
#218
0p
#219
#220
b000000000000000000000000000000000000000000000000000000000000000000000000000000000000000000000000000000000000000000000000000110111 /
1p
#221
#222
0p
#223
#224
b000000000000000000000000000000000000000000000000000000000000000000000000000000000000000000000000000000000000000000000000000111000 /
1p
#225
#226
0p
#227
#228
b000000000000000000000000000000000000000000000000000000000000000000000000000000000000000000000000000000000000000000000000000111001 /
1p
#229
#230
0p
#231
#232
b000000000000000000000000000000000000000000000000000000000000000000000000000000000000000000000000000000000000000000000000000111010 /
1p
#233
#234
0p
#235
#236
b000000000000000000000000000000000000000000000000000000000000000000000000000000000000000000000000000000000000000000000000000111011 /
1p
#237
#238
0p
#239
#240
b000000000000000000000000000000000000000000000000000000000000000000000000000000000000000000000000000000000000000000000000000111100 /
1p
#241
#242
0p
#243
#244
b000000000000000000000000000000000000000000000000000000000000000000000000000000000000000000000000000000000000000000000000000111101 /
1p
#245
#246
0p
#247
#248
b000000000000000000000000000000000000000000000000000000000000000000000000000000000000000000000000000000000000000000000000000111110 /
1p
#249
#250
0p
#251
#252
b000000000000000000000000000000000000000000000000000000000000000000000000000000000000000000000000000000000000000000000000000111111 /
1p
#253
#254
0p
#255
#256
b000000000000000000000000000000000000000000000000000000000000000000000000000000000000000000000000000000000000000000000000001000000 /
1p
#257
#258
0p
#259
#260
b000000000000000000000000000000000000000000000000000000000000000000000000000000000000000000000000000000000000000000000000001000001 /
1p
#261
#262
0p
#263
#264
b000000000000000000000000000000000000000000000000000000000000000000000000000000000000000000000000000000000000000000000000001000010 /
1p
#265
#266
0p
#267
#268
b000000000000000000000000000000000000000000000000000000000000000000000000000000000000000000000000000000000000000000000000001000011 /
1p
#269
#270
0p
#271
#272
b000000000000000000000000000000000000000000000000000000000000000000000000000000000000000000000000000000000000000000000000001000100 /
1p
#273
#274
0p
#275
#276
b000000000000000000000000000000000000000000000000000000000000000000000000000000000000000000000000000000000000000000000000001000101 /
1p
#277
#278
0p
#279
#280
b000000000000000000000000000000000000000000000000000000000000000000000000000000000000000000000000000000000000000000000000001000110 /
1p
#281
#282
0p
#283
#284
b000000000000000000000000000000000000000000000000000000000000000000000000000000000000000000000000000000000000000000000000001000111 /
1p
#285
#286
0p
#287
#288
b000000000000000000000000000000000000000000000000000000000000000000000000000000000000000000000000000000000000000000000000001001000 /
1p
#289
#290
0p
#291
#292
b000000000000000000000000000000000000000000000000000000000000000000000000000000000000000000000000000000000000000000000000001001001 /
1p
#293
#294
0p
#295
#296
b000000000000000000000000000000000000000000000000000000000000000000000000000000000000000000000000000000000000000000000000001001010 /
1p
#297
#298
0p
#299
#300
b000000000000000000000000000000000000000000000000000000000000000000000000000000000000000000000000000000000000000000000000001001011 /
1p
#301
#302
0p
#303
#304
b000000000000000000000000000000000000000000000000000000000000000000000000000000000000000000000000000000000000000000000000001001100 /
1p
#305
#306
0p
#307
#308
b000000000000000000000000000000000000000000000000000000000000000000000000000000000000000000000000000000000000000000000000001001101 /
1p
#309
#310
0p
#311
#312
b000000000000000000000000000000000000000000000000000000000000000000000000000000000000000000000000000000000000000000000000001001110 /
1p
#313
#314
0p
#315
#316
b000000000000000000000000000000000000000000000000000000000000000000000000000000000000000000000000000000000000000000000000001001111 /
1p
#317
#318
0p
#319
#320
b000000000000000000000000000000000000000000000000000000000000000000000000000000000000000000000000000000000000000000000000001010000 /
1p
#321
#322
0p
#323
#324
b000000000000000000000000000000000000000000000000000000000000000000000000000000000000000000000000000000000000000000000000001010001 /
1p
#325
#326
0p
#327
#328
b000000000000000000000000000000000000000000000000000000000000000000000000000000000000000000000000000000000000000000000000001010010 /
1p
#329
#330
0p
#331
#332
b000000000000000000000000000000000000000000000000000000000000000000000000000000000000000000000000000000000000000000000000001010011 /
1p
#333
#334
0p
#335
#336
b000000000000000000000000000000000000000000000000000000000000000000000000000000000000000000000000000000000000000000000000001010100 /
1p
#337
#338
0p
#339
#340
b000000000000000000000000000000000000000000000000000000000000000000000000000000000000000000000000000000000000000000000000001010101 /
1p
#341
#342
0p
#343
#344
b000000000000000000000000000000000000000000000000000000000000000000000000000000000000000000000000000000000000000000000000001010110 /
1p
#345
#346
0p
#347
#348
b000000000000000000000000000000000000000000000000000000000000000000000000000000000000000000000000000000000000000000000000001010111 /
1p
#349
#350
0p
#351
#352
b000000000000000000000000000000000000000000000000000000000000000000000000000000000000000000000000000000000000000000000000001011000 /
1p
#353
#354
0p
#355
#356
b000000000000000000000000000000000000000000000000000000000000000000000000000000000000000000000000000000000000000000000000001011001 /
1p
#357
#358
0p
#359
#360
b000000000000000000000000000000000000000000000000000000000000000000000000000000000000000000000000000000000000000000000000001011010 /
1p
#361
#362
0p
#363
#364
b000000000000000000000000000000000000000000000000000000000000000000000000000000000000000000000000000000000000000000000000001011011 /
1p
#365
#366
0p
#367
#368
b000000000000000000000000000000000000000000000000000000000000000000000000000000000000000000000000000000000000000000000000001011100 /
1p
#369
#370
0p
#371
#372
b000000000000000000000000000000000000000000000000000000000000000000000000000000000000000000000000000000000000000000000000001011101 /
1p
#373
#374
0p
#375
#376
b000000000000000000000000000000000000000000000000000000000000000000000000000000000000000000000000000000000000000000000000001011110 /
1p
#377
#378
0p
#379
#380
b000000000000000000000000000000000000000000000000000000000000000000000000000000000000000000000000000000000000000000000000001011111 /
1p
#381
#382
0p
#383
#384
b000000000000000000000000000000000000000000000000000000000000000000000000000000000000000000000000000000000000000000000000001100000 /
1p
#385
#386
0p
#387
#388
b000000000000000000000000000000000000000000000000000000000000000000000000000000000000000000000000000000000000000000000000001100001 /
1p
#389
#390
0p
#391
#392
b000000000000000000000000000000000000000000000000000000000000000000000000000000000000000000000000000000000000000000000000001100010 /
1p
#393
#394
0p
#395
#396
b000000000000000000000000000000000000000000000000000000000000000000000000000000000000000000000000000000000000000000000000001100011 /
1p
#397
#398
0p
#399
#400
b000000000000000000000000000000000000000000000000000000000000000000000000000000000000000000000000000000000000000000000000001100100 /
1p
#401
#402
0p
#403
#404
b000000000000000000000000000000000000000000000000000000000000000000000000000000000000000000000000000000000000000000000000001100101 /
1p
#405
#406
0p
#407
#408
b000000000000000000000000000000000000000000000000000000000000000000000000000000000000000000000000000000000000000000000000001100110 /
1p
#409
#410
0p
#411
#412
b000000000000000000000000000000000000000000000000000000000000000000000000000000000000000000000000000000000000000000000000001100111 /
1p
#413
#414
0p
#415
#416
b000000000000000000000000000000000000000000000000000000000000000000000000000000000000000000000000000000000000000000000000001101000 /
1p
#417
#418
0p
#419
#420
b000000000000000000000000000000000000000000000000000000000000000000000000000000000000000000000000000000000000000000000000001101001 /
1p
#421
#422
0p
#423
#424
b000000000000000000000000000000000000000000000000000000000000000000000000000000000000000000000000000000000000000000000000001101010 /
1p
#425
#426
0p
#427
#428
b000000000000000000000000000000000000000000000000000000000000000000000000000000000000000000000000000000000000000000000000001101011 /
1p
#429
#430
0p
#431
#432
b000000000000000000000000000000000000000000000000000000000000000000000000000000000000000000000000000000000000000000000000001101100 /
1p
#433
#434
0p
#435
#436
b000000000000000000000000000000000000000000000000000000000000000000000000000000000000000000000000000000000000000000000000001101101 /
1p
#437
#438
0p
#439
#440
b000000000000000000000000000000000000000000000000000000000000000000000000000000000000000000000000000000000000000000000000001101110 /
1p
#441
#442
0p
#443
#444
b000000000000000000000000000000000000000000000000000000000000000000000000000000000000000000000000000000000000000000000000001101111 /
1p
#445
#446
0p
#447
#448
b000000000000000000000000000000000000000000000000000000000000000000000000000000000000000000000000000000000000000000000000001110000 /
1p
#449
#450
0p
#451
#452
b000000000000000000000000000000000000000000000000000000000000000000000000000000000000000000000000000000000000000000000000001110001 /
1p
#453
#454
0p
#455
#456
b000000000000000000000000000000000000000000000000000000000000000000000000000000000000000000000000000000000000000000000000001110010 /
1p
#457
#458
0p
#459
#460
b000000000000000000000000000000000000000000000000000000000000000000000000000000000000000000000000000000000000000000000000001110011 /
1p
#461
#462
0p
#463
#464
b000000000000000000000000000000000000000000000000000000000000000000000000000000000000000000000000000000000000000000000000001110100 /
1p
#465
#466
0p
#467
#468
b000000000000000000000000000000000000000000000000000000000000000000000000000000000000000000000000000000000000000000000000001110101 /
1p
#469
#470
0p
#471
#472
b000000000000000000000000000000000000000000000000000000000000000000000000000000000000000000000000000000000000000000000000001110110 /
1p
#473
#474
0p
#475
#476
b000000000000000000000000000000000000000000000000000000000000000000000000000000000000000000000000000000000000000000000000001110111 /
1p
#477
#478
0p
#479
#480
b000000000000000000000000000000000000000000000000000000000000000000000000000000000000000000000000000000000000000000000000001111000 /
1p
#481
#482
0p
#483
#484
b000000000000000000000000000000000000000000000000000000000000000000000000000000000000000000000000000000000000000000000000001111001 /
1p
#485
#486
0p
#487
#488
b000000000000000000000000000000000000000000000000000000000000000000000000000000000000000000000000000000000000000000000000001111010 /
1p
#489
#490
0p
#491
#492
b000000000000000000000000000000000000000000000000000000000000000000000000000000000000000000000000000000000000000000000000001111011 /
1p
#493
#494
0p
#495
#496
b000000000000000000000000000000000000000000000000000000000000000000000000000000000000000000000000000000000000000000000000001111100 /
1p
#497
#498
0p
#499
#500
b000000000000000000000000000000000000000000000000000000000000000000000000000000000000000000000000000000000000000000000000001111101 /
1p
#501
#502
0p
#503
#504
b000000000000000000000000000000000000000000000000000000000000000000000000000000000000000000000000000000000000000000000000001111110 /
1p
#505
#506
0p
#507
#508
b000000000000000000000000000000000000000000000000000000000000000000000000000000000000000000000000000000000000000000000000001111111 /
1p
#509
#510
0p
#511
#512
b000000000000000000000000000000000000000000000000000000000000000000000000000000000000000000000000000000000000000000000000010000000 /
1p
#513
#514
0p
#515
#516
b000000000000000000000000000000000000000000000000000000000000000000000000000000000000000000000000000000000000000000000000010000001 /
1p
#517
#518
0p
#519
#520
b000000000000000000000000000000000000000000000000000000000000000000000000000000000000000000000000000000000000000000000000010000010 /
1p
#521
#522
0p
#523
#524
b000000000000000000000000000000000000000000000000000000000000000000000000000000000000000000000000000000000000000000000000010000011 /
1p
#525
#526
0p
#527
#528
b000000000000000000000000000000000000000000000000000000000000000000000000000000000000000000000000000000000000000000000000010000100 /
1p
#529
#530
0p
#531
#532
b000000000000000000000000000000000000000000000000000000000000000000000000000000000000000000000000000000000000000000000000010000101 /
1p
#533
#534
0p
#535
#536
b000000000000000000000000000000000000000000000000000000000000000000000000000000000000000000000000000000000000000000000000010000110 /
1p
#537
#538
0p
#539
#540
b000000000000000000000000000000000000000000000000000000000000000000000000000000000000000000000000000000000000000000000000010000111 /
1p
#541
#542
0p
#543
#544
b000000000000000000000000000000000000000000000000000000000000000000000000000000000000000000000000000000000000000000000000010001000 /
1p
#545
#546
0p
#547
#548
b000000000000000000000000000000000000000000000000000000000000000000000000000000000000000000000000000000000000000000000000010001001 /
1p
#549
#550
0p
#551
#552
b000000000000000000000000000000000000000000000000000000000000000000000000000000000000000000000000000000000000000000000000010001010 /
1p
#553
#554
0p
#555
#556
b000000000000000000000000000000000000000000000000000000000000000000000000000000000000000000000000000000000000000000000000010001011 /
1p
#557
#558
0p
#559
#560
b000000000000000000000000000000000000000000000000000000000000000000000000000000000000000000000000000000000000000000000000010001100 /
1p
#561
#562
0p
#563
#564
b000000000000000000000000000000000000000000000000000000000000000000000000000000000000000000000000000000000000000000000000010001101 /
1p
#565
#566
0p
#567
#568
b000000000000000000000000000000000000000000000000000000000000000000000000000000000000000000000000000000000000000000000000010001110 /
1p
#569
#570
0p
#571
#572
b000000000000000000000000000000000000000000000000000000000000000000000000000000000000000000000000000000000000000000000000010001111 /
1p
#573
#574
0p
#575
#576
b000000000000000000000000000000000000000000000000000000000000000000000000000000000000000000000000000000000000000000000000010010000 /
1p
#577
#578
0p
#579
#580
b000000000000000000000000000000000000000000000000000000000000000000000000000000000000000000000000000000000000000000000000010010001 /
1p
#581
#582
0p
#583
#584
b000000000000000000000000000000000000000000000000000000000000000000000000000000000000000000000000000000000000000000000000010010010 /
1p
#585
#586
0p
#587
#588
b000000000000000000000000000000000000000000000000000000000000000000000000000000000000000000000000000000000000000000000000010010011 /
1p
#589
#590
0p
#591
#592
b000000000000000000000000000000000000000000000000000000000000000000000000000000000000000000000000000000000000000000000000010010100 /
1p
#593
#594
0p
#595
#596
b000000000000000000000000000000000000000000000000000000000000000000000000000000000000000000000000000000000000000000000000010010101 /
1p
#597
#598
0p
#599
#600
b000000000000000000000000000000000000000000000000000000000000000000000000000000000000000000000000000000000000000000000000010010110 /
1p
#601
#602
0p
#603
#604
b000000000000000000000000000000000000000000000000000000000000000000000000000000000000000000000000000000000000000000000000010010111 /
1p
#605
#606
0p
#607
#608
b000000000000000000000000000000000000000000000000000000000000000000000000000000000000000000000000000000000000000000000000010011000 /
1p
#609
#610
0p
#611
#612
b000000000000000000000000000000000000000000000000000000000000000000000000000000000000000000000000000000000000000000000000010011001 /
1p
#613
#614
0p
#615
#616
b000000000000000000000000000000000000000000000000000000000000000000000000000000000000000000000000000000000000000000000000010011010 /
1p
#617
#618
0p
#619
#620
b000000000000000000000000000000000000000000000000000000000000000000000000000000000000000000000000000000000000000000000000010011011 /
1p
#621
#622
0p
#623
#624
b000000000000000000000000000000000000000000000000000000000000000000000000000000000000000000000000000000000000000000000000010011100 /
1p
#625
#626
0p
#627
